/* XPM */
static char * erase_xpm[] = {
"35 35 5 1",
" 	c None",
".	c #4D5D77",
"+	c #0E19ED",
"@	c #000000",
"#	c #FFFFFF",
"                                   ",
"                                   ",
"                                   ",
"                                   ",
"                                   ",
"                                   ",
"                                   ",
"                                   ",
"                  ...........      ",
"                 .+++++++++..      ",
"                .+@+@++@++.+.      ",
"               .+@+@++@++.++.      ",
"              .+++@+@@++.+++.      ",
"             .++@+++@++.++++.      ",
"            .++@@@@@++.++++.       ",
"           .+++++++++.++++.        ",
"          ...........++++.         ",
"          .########..+++.          ",
"         .########.#.++.           ",
"        .########.##.+.            ",
"       ..........###..             ",
"      .#########.###.              ",
"      .#########.##.               ",
"      .#########.#.                ",
"      .#########..                 ",
"      ...........                  ",
"                                   ",
"                                   ",
"                                   ",
"                                   ",
"                                   ",
"                                   ",
"                                   ",
"                                   ",
"                                   "};
