/* Made with Gimp */
#define zoom_m_width 20
#define zoom_m_height 12
static char zoom_m_bits[] = {
   0xf0, 0xff, 0x0f, 0xfc, 0xff, 0x0f, 0xfa, 0xff, 0x0f, 0xf6, 0xff, 0x0f,
   0xef, 0xff, 0x0f, 0xff, 0xff, 0x0f, 0x30, 0xe7, 0x0a, 0xd7, 0x5a, 0x05,
   0xdb, 0x5a, 0x05, 0xdd, 0x5a, 0x05, 0xde, 0x5a, 0x05, 0x30, 0x67, 0x05 };
